{
    "amount": 20,
    "chargeFee": true,
    "token": "dumb",
    "creditCard": {
        "expirationYear": 2019,
        "expirationMonth": 9,
        "holder": {
            "name": "John Stevens",
            "zip": "12345",
            "address": "test address"
        },
        "number": "4012000033330026",
        "validationValue": "123"
    },
    "clientReferenceData": {
        "clientReferenceData1": "1234",
        "clientReferenceData2": "16df9b37-65f5-401b-8eb1-952cea9418c2",
        "clientReferenceData3": "Location",
        "clientReferenceData4": null,
        "clientReferenceData5": null
    },
    "isRecurring": false,
    "accountGroupCode": "Default",
    "callbackId": null,
    "save": false,
    "convenienceFeeType": null,
    "customerId": null
}