{
  "Token": null,
  "ServerReferenceData": null,
  "BankName": "Bank name",
  "TransactionId": "99991",
  "TransactionDate": "2019-04-18T15:37:30.2157497-07:00",
  "TimeZone": "PDT",
  "BatchNumber": 0,
  "ResponseCode": "Success",
  "Message": "Success"
}